CPU2/simulation/qsim/CPU2.msim.vcd
$comment
	File created using the following command:
		vcd file CPU2.msim.vcd -direction
$end
$date
	Wed Sep 25 15:25:28 2024
$end
$version
	ModelSim Version 10.5b
$end
$timescale
	1ps
$end

$scope module ULA_vlg_vec_tst $end
$var reg 4 ! A [3:0] $end
$var reg 4 " B [3:0] $end
$var reg 2 # OP [1:0] $end
$var wire 1 $ RES [3] $end
$var wire 1 % RES [2] $end
$var wire 1 & RES [1] $end
$var wire 1 ' RES [0] $end
$var wire 1 ( WARNING $end

$scope module i1 $end
$var wire 1 ) gnd $end
$var wire 1 * vcc $end
$var wire 1 + unknown $end
$var tri1 1 , devclrn $end
$var tri1 1 - devpor $end
$var tri1 1 . devoe $end
$var wire 1 / WARNING~output_o $end
$var wire 1 0 RES[3]~output_o $end
$var wire 1 1 RES[2]~output_o $end
$var wire 1 2 RES[1]~output_o $end
$var wire 1 3 RES[0]~output_o $end
$var wire 1 4 A[3]~input_o $end
$var wire 1 5 A[2]~input_o $end
$var wire 1 6 B[2]~input_o $end
$var wire 1 7 A[1]~input_o $end
$var wire 1 8 B[1]~input_o $end
$var wire 1 9 B[0]~input_o $end
$var wire 1 : A[0]~input_o $end
$var wire 1 ; inst1|inst2|inst6~0_combout $end
$var wire 1 < inst1|inst3|inst6~1_combout $end
$var wire 1 = inst1|inst3|inst6~0_combout $end
$var wire 1 > B[3]~input_o $end
$var wire 1 ? inst1|inst4|inst6~0_combout $end
$var wire 1 @ OP[1]~input_o $end
$var wire 1 A OP[0]~input_o $end
$var wire 1 B inst2|LPM_MUX_component|auto_generated|result_node[0]~2_combout $end
$var wire 1 C inst1|inst4|inst2~combout $end
$var wire 1 D inst|LPM_MUX_component|auto_generated|result_node[3]~7_combout $end
$var wire 1 E inst|LPM_MUX_component|auto_generated|result_node[0]~4_combout $end
$var wire 1 F inst|LPM_MUX_component|auto_generated|result_node[2]~5_combout $end
$var wire 1 G inst1|inst2|inst2~0_combout $end
$var wire 1 H inst|LPM_MUX_component|auto_generated|result_node[1]~8_combout $end
$var wire 1 I inst|LPM_MUX_component|auto_generated|result_node[0]~6_combout $end
$upscope $end
$upscope $end
$enddefinitions $end
#0
$dumpvars
b0 !
b1011 "
b0 #
1'
1&
0%
1$
0(
0)
1*
x+
1,
1-
1.
0/
10
01
12
13
04
05
06
07
18
19
0:
0;
0<
0=
1>
0?
0@
0A
0B
1C
1D
1E
0F
1G
1H
1I
$end
#1000000
b1 !
b1111 "
b1101 "
b1100 "
09
08
16
1:
0G
1F
11
1%
0H
02
0&
#2000000
b11 !
b10 !
b1101 "
19
0:
17
1G
1H
12
1&
#3000000
b1111 "
b11 !
b1110 "
1:
09
18
0G
1;
1<
0H
0F
01
02
0C
1?
0&
0%
0D
1B
1/
00
0$
1(
#4000000
b111 !
b1 #
b101 !
b100 !
b1111 "
19
1A
0:
07
15
1G
0;
0E
1=
0I
0B
1F
11
0/
03
0=
0'
0(
1%
0F
01
0%
#5000000
b111 "
b11 "
b1 "
b101 !
b0 "
1:
09
08
06
0>
0G
0<
1C
0?
0C
#6000000
b111 !
b110 !
b1 "
19
0:
17
1G
#7000000
b11 "
b111 !
b10 "
1:
09
18
0G
1;
1=
1C
#8000000
b1111 !
b11 #
b1011 !
b10 #
b1001 !
b1000 !
b11 "
19
0A
1@
0:
07
05
14
1G
0;
0=
0C
1?
1C
0?
#9000000
b111 "
b101 "
b1001 !
b100 "
1:
09
08
16
0G
#10000000
b1011 !
b1010 !
b101 "
19
0:
17
1G
#11000000
b111 "
b1011 !
b110 "
1:
09
18
0G
1;
1<
0C
1?
#12000000
b1111 !
b11 #
b1101 !
b1100 !
b111 "
19
1A
0:
07
15
1G
0;
1=
0=
#13000000
b1111 "
b1011 "
b1001 "
b1101 !
b1000 "
1:
09
08
06
1>
0G
0<
1C
0C
#14000000
b1111 !
b1110 !
b1001 "
19
0:
17
1G
#15000000
b1011 "
b1111 !
b1010 "
1:
09
18
0G
1;
1=
1C
