CPU2/simulation/qsim/CPU2.msim.vcd
$comment
	File created using the following command:
		vcd file CPU2.msim.vcd -direction
$end
$date
	Sun Sep 22 20:25:51 2024
$end
$version
	ModelSim Version 10.5b
$end
$timescale
	1ps
$end

$scope module CONTADOR_vlg_vec_tst $end
$var reg 1 ! CLEAR $end
$var reg 1 " CLOCK $end
$var reg 1 # ENABLE $end
$var wire 1 $ OUT [7] $end
$var wire 1 % OUT [6] $end
$var wire 1 & OUT [5] $end
$var wire 1 ' OUT [4] $end
$var wire 1 ( OUT [3] $end
$var wire 1 ) OUT [2] $end
$var wire 1 * OUT [1] $end
$var wire 1 + OUT [0] $end

$scope module i1 $end
$var wire 1 , gnd $end
$var wire 1 - vcc $end
$var wire 1 . unknown $end
$var tri1 1 / devclrn $end
$var tri1 1 0 devpor $end
$var tri1 1 1 devoe $end
$var wire 1 2 OUT[7]~output_o $end
$var wire 1 3 OUT[6]~output_o $end
$var wire 1 4 OUT[5]~output_o $end
$var wire 1 5 OUT[4]~output_o $end
$var wire 1 6 OUT[3]~output_o $end
$var wire 1 7 OUT[2]~output_o $end
$var wire 1 8 OUT[1]~output_o $end
$var wire 1 9 OUT[0]~output_o $end
$var wire 1 : CLOCK~input_o $end
$var wire 1 ; ENABLE~input_o $end
$var wire 1 < inst99~0_combout $end
$var wire 1 = CLEAR~input_o $end
$var wire 1 > inst99~q $end
$var wire 1 ? inst2~0_combout $end
$var wire 1 @ inst2~q $end
$var wire 1 A inst3~0_combout $end
$var wire 1 B inst3~q $end
$var wire 1 C inst4~0_combout $end
$var wire 1 D inst4~q $end
$var wire 1 E inst14~combout $end
$var wire 1 F inst199~0_combout $end
$var wire 1 G inst199~q $end
$var wire 1 H inst20~0_combout $end
$var wire 1 I inst20~q $end
$var wire 1 J inst219~0_combout $end
$var wire 1 K inst219~q $end
$var wire 1 L inst229~0_combout $end
$var wire 1 M inst229~1_combout $end
$var wire 1 N inst229~q $end
$upscope $end
$upscope $end
$enddefinitions $end
#0
$dumpvars
0!
0"
1#
0+
0*
0)
0(
0'
0&
0%
0$
0,
1-
x.
1/
10
11
02
03
04
05
06
07
08
09
0:
1;
1<
0=
0>
0?
0@
0A
0B
0C
0D
0E
0F
0G
0H
0I
0J
0K
1L
0M
0N
$end
#500000
1"
1:
1>
19
1+
1?
0<
#1000000
0"
0:
#1500000
1"
1:
1@
0>
09
18
1*
0+
1<
#2000000
0"
0:
#2500000
1"
1:
1>
19
1+
1A
0?
0<
#3000000
0"
0:
#3500000
1"
1:
1B
0@
0>
09
08
17
1)
0*
0+
1<
#4000000
0"
0:
#4500000
1"
1:
1>
19
1+
1?
0<
#5000000
0"
0:
#5500000
1"
1:
1@
0>
09
18
1*
0+
1<
#6000000
0"
0:
#6500000
1"
1:
1>
19
1+
1C
0A
0?
0<
#7000000
0"
0:
#7500000
1"
1:
1D
0B
0@
0>
09
08
07
16
1(
0)
0*
0+
1<
#8000000
0"
0:
#8500000
1"
1:
1>
19
1+
1?
0<
#9000000
0"
0:
#9500000
1"
1:
1@
0>
09
18
1*
0+
1<
#10000000
0"
0:
#10500000
1"
1:
1>
19
1+
1A
0?
0<
#11000000
0"
0:
#11500000
1"
1:
1B
0@
0>
09
08
17
1)
0*
0+
1<
#12000000
0"
0:
#12500000
1"
1:
1>
19
1+
1?
0<
#13000000
0"
0:
#13500000
1"
1:
1@
0>
09
18
1*
0+
1<
#14000000
0"
0:
#14500000
1"
1:
1>
19
1E
1+
0C
0A
0?
0<
1F
#15000000
0"
0:
#15500000
1"
1:
1G
0D
0B
0@
0>
09
08
07
06
15
0E
1'
0(
0)
0*
0+
1H
0F
1<
0H
1F
#16000000
0"
0:
#16500000
1"
1:
1>
19
1+
1?
0<
#17000000
0"
0:
#17500000
1"
1:
1@
0>
09
18
1*
0+
1<
#18000000
0"
0:
#18500000
1"
1:
1>
19
1+
1A
0?
0<
#19000000
0"
0:
#19500000
1"
1:
1B
0@
0>
09
08
17
1)
0*
0+
1<
#20000000
0"
0:
#20500000
1"
1:
1>
19
1+
1?
0<
#21000000
0"
0:
#21500000
1"
1:
1@
0>
09
18
1*
0+
1<
#22000000
0"
0:
#22500000
1"
1:
1>
19
1+
1C
0A
0?
0<
#23000000
0"
0:
#23500000
1"
1:
1D
0B
0@
0>
09
08
07
16
1(
0)
0*
0+
1<
#24000000
0"
0:
#24500000
1"
1:
1>
19
1+
1?
0<
#25000000
0"
0:
#25500000
1"
1:
1@
0>
09
18
1*
0+
1<
#26000000
0"
0:
#26500000
1"
1:
1>
19
1+
1A
0?
0<
#27000000
0"
0:
#27500000
1"
1:
1B
0@
0>
09
08
17
1)
0*
0+
1<
#28000000
0"
0:
#28500000
1"
1:
1>
19
1+
1?
0<
#29000000
0"
0:
#29500000
1"
1:
1@
0>
09
18
1*
0+
1<
#30000000
0"
0:
#30500000
1"
1:
1>
19
1E
1+
0C
0A
0?
0<
1H
0F
#31000000
0"
0:
#31500000
1"
1:
1I
0G
0D
0B
0@
0>
09
08
07
06
05
14
0E
1&
0'
0(
0)
0*
0+
1F
1<
0F
#32000000
0"
0:
#32500000
1"
1:
1>
19
1+
1?
0<
#33000000
0"
0:
#33500000
1"
1:
1@
0>
09
18
1*
0+
1<
#34000000
0"
0:
#34500000
1"
1:
1>
19
1+
1A
0?
0<
#35000000
0"
0:
#35500000
1"
1:
1B
0@
0>
09
08
17
1)
0*
0+
1<
#36000000
0"
0:
#36500000
1"
1:
1>
19
1+
1?
0<
#37000000
0"
0:
#37500000
1"
1:
1@
0>
09
18
1*
0+
1<
#38000000
0"
0:
#38500000
1"
1:
1>
19
1+
1C
0A
0?
0<
#39000000
0"
0:
#39500000
1"
1:
1D
0B
0@
0>
09
08
07
16
1(
0)
0*
0+
1<
#40000000
0"
0:
#40500000
1"
1:
1>
19
1+
1?
0<
#41000000
0"
0:
#41500000
1"
1:
1@
0>
09
18
1*
0+
1<
#42000000
0"
0:
#42500000
1"
1:
1>
19
1+
1A
0?
0<
#43000000
0"
0:
#43500000
1"
1:
1B
0@
0>
09
08
17
1)
0*
0+
1<
#44000000
0"
0:
#44500000
1"
1:
1>
19
1+
1?
0<
#45000000
0"
0:
#45500000
1"
1:
1@
0>
09
18
1*
0+
1<
#46000000
0"
0:
#46500000
1"
1:
1>
19
1E
1+
0C
0A
0?
0<
1F
#47000000
0"
0:
#47500000
1"
1:
1G
0D
0B
0@
0>
09
08
07
06
15
0L
0E
1'
0(
0)
0*
0+
1J
0H
0F
1<
0J
1H
1F
#48000000
0"
0:
#48500000
1"
1:
1>
19
1+
1?
0<
#49000000
0"
0:
#49500000
1"
1:
1@
0>
09
18
1*
0+
1<
#50000000
0"
0:
#50500000
1"
1:
1>
19
1+
1A
0?
0<
#51000000
0"
0:
#51500000
1"
1:
1B
0@
0>
09
08
17
1)
0*
0+
1<
#52000000
0"
0:
#52500000
1"
1:
1>
19
1+
1?
0<
#53000000
0"
0:
#53500000
1"
1:
1@
0>
09
18
1*
0+
1<
#54000000
0"
0:
#54500000
1"
1:
1>
19
1+
1C
0A
0?
0<
#55000000
0"
0:
#55500000
1"
1:
1D
0B
0@
0>
09
08
07
16
1(
0)
0*
0+
1<
#56000000
0"
0:
#56500000
1"
1:
1>
19
1+
1?
0<
#57000000
0"
0:
#57500000
1"
1:
1@
0>
09
18
1*
0+
1<
#58000000
0"
0:
#58500000
1"
1:
1>
19
1+
1A
0?
0<
#59000000
0"
0:
#59500000
1"
1:
1B
0@
0>
09
08
17
1)
0*
0+
1<
#60000000
0"
0:
#60500000
1"
1:
1>
19
1+
1?
0<
#61000000
0"
0:
#61500000
1"
1:
1@
0>
09
18
1*
0+
1<
#62000000
0"
0:
#62500000
1"
1:
1>
19
1E
1+
0C
0A
0?
0<
1J
0H
0F
#63000000
0"
0:
#63500000
1"
1:
1K
0I
0G
0D
0B
0@
0>
09
08
07
06
05
04
13
1L
0E
1%
0&
0'
0(
0)
0*
0+
1M
1F
1<
0M
0F
